    29
 Wannier centres, written by Wannier90 on 7Nov2019 at 17:29:41 
X         -0.00000066       1.79118677       0.00000000
X         -0.00000066       1.79118677       0.00000000
X         -0.00000129       1.78495643      -0.00000000
X         -0.00000129       1.78495643      -0.00000000
X         -0.00000054       1.79728768       0.00000000
X         -0.00000054       1.79728769      -0.00000000
X         -0.00000097       1.70691981      -0.00000000
X         -0.00000097       1.70691981      -0.00000000
X         -0.00000181       1.87550850      -0.00000000
X         -0.00000181       1.87550850       0.00000000
X          1.55117354       0.89550349       1.54104366
X          1.55117354       0.89550349       1.54104366
X          1.55115980       0.89558664       1.53971472
X          1.55115980       0.89558664       1.53971472
X          1.55114445       0.90076623       1.53579819
X          1.55114446       0.90076623       1.53579819
X          1.55115927       0.89028226       1.53583868
X          1.55115927       0.89028226       1.53583868
X          1.55117354       0.89550349      -1.54104366
X          1.55117354       0.89550349      -1.54104366
X          1.55115980       0.89558664      -1.53971472
X          1.55115980       0.89558664      -1.53971472
X          1.55114445       0.90076623      -1.53579819
X          1.55114446       0.90076623      -1.53579819
X          1.55115927       0.89028226      -1.53583868
X          1.55115927       0.89028226      -1.53583868
Mo        -0.00000000       1.79112386       0.00000000
S          1.55115876       0.89556193       1.56468441
S          1.55115876       0.89556193      -1.56468441
