     5
 Wannier centres, written by Wannier90 on 5Apr2018 at 15:41:57 
X          0.39707015       0.39707015       0.39707015
X          0.39707015      -0.39707015      -0.39707015
X         -0.39707015       0.39707015      -0.39707015
X         -0.39707015      -0.39707015       0.39707015
Pb         0.00000000       0.00000000       0.00000000
