    16
 Wannier centres, written by Wannier90 on 5Nov2019 at 16:02:44 
X         -0.00000033       1.79120122      -0.00000000
X         -0.00000011       1.78208174       0.00000000
X         -0.00000060       1.80019520       0.00000000
X          0.00000023       1.70251670      -0.00000000
X         -0.00000070       1.87995938      -0.00000000
X          1.55117369       0.89550602       1.53980087
X          1.55115919       0.89556065       1.54858452
X          1.55114387       0.90295516       1.53967359
X          1.55115893       0.88808138       1.53975993
X          1.55117369       0.89550602      -1.53980087
X          1.55115919       0.89556065      -1.54858452
X          1.55114386       0.90295516      -1.53967359
X          1.55115893       0.88808138      -1.53975993
Mo        -0.00000000       1.79112386       0.00000000
S          1.55115876       0.89556193       1.56468441
S          1.55115876       0.89556193      -1.56468441
