    10
 Wannier centres, written by Wannier90 on 5Apr2018 at 19:26:44 
X         -0.46075445      -0.46071128      -0.46076718
X         -0.46074274       0.46072161       0.46071806
X          0.46070308      -0.46076060       0.46068543
X          0.46070420       0.46072368      -0.46076361
X          1.81012790       1.81011177       1.81011246
X          1.81009680       0.88866225       0.88861706
X          0.88863985       1.81014003       0.88866004
X          0.88864254       0.88865191       1.81009037
Si         1.34940000       1.34940000       1.34940000
Si         0.00000000       0.00000000       0.00000000
